<?xml version="1.0" standalone="no"?>
<!DOCTYPE svg PUBLIC "-//W3C//DTD SVG 1.1//EN" "http://www.w3.org/Graphics/SVG/1.1/DTD/svg11.dtd" >
<svg xmlns="http://www.w3.org/2000/svg" width="100%" height="100%">
<metadata>
Created by FontXChange 20100429 at Thu Jul 16 12:57:45 2015
 By iMac
Typeface (c) 1992 Fonderia Caratteri Svizzera Walter Fruttiger A.G. Data (c) 1992 URW. Portions (c) 1992 Microsoft Corp. All rights reserved.
</metadata>
<defs>
<font id="EurostileRegular" horiz-adv-x="1256" >
  <font-face 
    font-family="Eurostile"
    font-weight="400"
    font-stretch="normal"
    units-per-em="2048"
    panose-1="2 11 5 4 2 2 2 5 2 4"
    ascent="1638"
    descent="-410"
    x-height="956"
    cap-height="1365"
    bbox="-378 -512 2299 1775"
    underline-thickness="130"
    underline-position="-136"
    unicode-range="U+0020-F002"
  />
<missing-glyph horiz-adv-x="682" 
d="M68 0v1365h546v-1365h-546zM546 68v1229h-410v-1229h410z" />
    <glyph glyph-name=".notdef" horiz-adv-x="682" 
d="M68 0v1365h546v-1365h-546zM546 68v1229h-410v-1229h410z" />
    <glyph glyph-name="glyph1" horiz-adv-x="0" 
 />
    <glyph glyph-name="glyph2" horiz-adv-x="682" 
 />
    <glyph glyph-name="space" unicode=" " horiz-adv-x="512" 
 />
    <glyph glyph-name="uni00A0" unicode="&#xa0;" horiz-adv-x="512" 
 />
    <glyph glyph-name="A" unicode="A" horiz-adv-x="1246" 
d="M969 289h-691l-105 -289h-163l500 1365h216l510 -1365h-161zM924 405l-303 834l-299 -834h602z" />
    <glyph glyph-name="B" unicode="B" horiz-adv-x="1264" 
d="M130 0v1365h604q251 0 328.5 -69t77.5 -292q0 -227 -175 -287v-3q217 -52 217 -321q0 -217 -85.5 -305t-297.5 -88h-669zM284 765h405q193 0 248.5 46t55.5 205q0 138 -48.5 178.5t-213.5 40.5h-447v-470zM284 130h327l139 1q176 0 230.5 45.5t54.5 192.5
q0 183 -55 224.5t-299 41.5h-397v-505z" />
    <glyph glyph-name="C" unicode="C" horiz-adv-x="1222" 
d="M1025 456h153v-52q0 -279 -95 -348.5t-478 -69.5q-343 0 -436 122.5t-93 576.5q0 355 21 446.5t120 163.5q116 84 501 84q261 0 351.5 -81t90.5 -313l1 -37h-153l-1 42q0 165 -53.5 212t-241.5 47q-330 0 -403 -55t-73 -305q0 -575 49 -674t335 -99q272 0 339.5 43
t67.5 216z" />
    <glyph glyph-name="D" unicode="D" horiz-adv-x="1338" 
d="M130 0v1365h632q293 0 397 -129t104 -494q0 -444 -92.5 -593t-369.5 -149h-671zM284 130h445q245 0 316 98t71 437q0 372 -61.5 471t-294.5 99h-476v-1105z" />
    <glyph glyph-name="E" unicode="E" horiz-adv-x="1020" 
d="M229 1235v-465h693v-130h-693v-510h723v-130h-877v1365h877v-130h-723z" />
    <glyph glyph-name="F" unicode="F" horiz-adv-x="1001" 
d="M284 1235v-477h665v-130h-665v-628h-154v1365h837v-130h-683z" />
    <glyph glyph-name="G" unicode="G" horiz-adv-x="1268" 
d="M617 679h585q4 -53 4 -149q0 -369 -90.5 -456.5t-472.5 -87.5q-361 0 -464 103.5t-103 464.5l-1 201l1 121q0 303 114.5 403t461.5 100q348 0 449 -65.5t101 -292.5v-52h-151v34q0 167 -68.5 206.5t-357.5 39.5q-267 0 -334 -63.5t-67 -317.5l-2 -181l1 -195
q0 -258 74.5 -317t397.5 -59q247 0 305.5 56t58.5 293q0 19 -8 84h-434v130z" />
    <glyph glyph-name="H" unicode="H" horiz-adv-x="1365" 
d="M1236 1365v-1365h-154v633h-798v-633h-154v1365h154v-602h798v602h154z" />
    <glyph glyph-name="I" unicode="I" horiz-adv-x="417" 
d="M284 1365v-1365h-154v1365h154z" />
    <glyph glyph-name="J" unicode="J" horiz-adv-x="1028" 
d="M898 1365v-963q0 -241 -88 -328.5t-330 -87.5q-245 0 -336 74.5t-91 274.5q0 93 3 162h151v-25v-105q0 -167 45 -209t222 -42q175 0 222.5 55t47.5 256v938h154z" />
    <glyph glyph-name="K" unicode="K" horiz-adv-x="1235" 
d="M284 1365v-596h135l560 596h199l-624 -658l700 -707h-211l-624 639h-135v-639h-154v1365h154z" />
    <glyph glyph-name="L" unicode="L" horiz-adv-x="993" 
d="M284 1365v-1222h702v-143h-856v1365h154z" />
    <glyph glyph-name="M" unicode="M" horiz-adv-x="1757" 
d="M1628 1365v-1365h-154v1092v82l1 41l1 41h-4l-12 -32q-9 -24 -12 -31l-26 -64l-465 -1129h-154l-466 1116l-27 63l-12 32q-5 11 -12 31h-4l1 -37l1 -38v-75v-1092h-154v1365h267l364 -883l58 -143l29 -71l28 -71h4l28 71q21 51 28 71l59 142l362 884h271z" />
    <glyph glyph-name="N" unicode="N" horiz-adv-x="1426" 
d="M1296 1365v-1365h-253l-572 929l-93 153l-46 76l-46 76h-4l1 -51l1 -52v-102v-1029h-154v1365h252l499 -814l130 -214l65 -106l64 -107h4l-1 51l-1 52v102v1036h154z" />
    <glyph glyph-name="O" unicode="O" 
d="M629 1379q387 0 484 -113t97 -565q0 -487 -93 -601t-488 -114q-393 0 -487.5 113t-94.5 584v96l2 129q0 272 122.5 371.5t457.5 99.5zM628 1249q-324 0 -379 -72t-55 -494q0 -423 55 -495t379 -72q325 0 380 72t55 495v89l-1 129q0 226 -76 287t-358 61z" />
    <glyph glyph-name="P" unicode="P" horiz-adv-x="1208" 
d="M130 0v1365h573h52q231 0 315 -89t84 -333q0 -234 -87.5 -319t-328.5 -85l-60 -1h-394v-538h-154zM284 668h365q229 0 293.5 47t64.5 216q0 198 -43.5 250.5t-206.5 52.5l-59 1h-414v-567z" />
    <glyph glyph-name="Q" unicode="Q" horiz-adv-x="1342" 
d="M1322 167l-63 -105l-122 79q-110 -155 -507 -155q-405 0 -493.5 114.5t-88.5 637.5q0 418 101 529.5t481 111.5q387 0 484 -113t97 -565q0 -339 -25 -444zM606 489l71 105l373 -247q14 73 14 258q0 494 -50.5 569t-384.5 75q-324 0 -379 -72t-55 -494q0 -423 55 -495
t377 -72q320 0 388 105z" />
    <glyph glyph-name="R" unicode="R" horiz-adv-x="1276" 
d="M130 0v1365h650q220 0 310 -87t90 -302q0 -189 -49 -263.5t-187 -96.5v-3q217 -16 217 -264v-349h-154v314q0 239 -207 239h-51h-465v-553h-154zM284 683h445q176 0 240 53.5t64 201.5q0 185 -47.5 241t-203.5 56h-498v-552z" />
    <glyph glyph-name="S" unicode="S" horiz-adv-x="1146" 
d="M1066 995h-153q0 165 -55 209.5t-259 44.5q-242 0 -312 -42.5t-70 -189.5q0 -165 55 -201t327 -49q319 -14 405.5 -81t86.5 -300q0 -252 -99.5 -326t-439.5 -74q-295 0 -392.5 74.5t-97.5 300.5l-1 61h153v-34q0 -183 56 -227.5t287 -44.5q265 0 326 44.5t61 237.5
q0 125 -41.5 166.5t-173.5 49.5l-160 8l-152 8q-347 24 -347 360q0 233 101 311t403 78q306 0 399 -72.5t93 -311.5z" />
    <glyph glyph-name="T" unicode="T" horiz-adv-x="1054" 
d="M606 1222v-1222h-154v1222h-445v143h1040v-143h-441z" />
    <glyph glyph-name="U" unicode="U" horiz-adv-x="1341" 
d="M1058 1365h154v-956q0 -260 -104.5 -341.5t-438.5 -81.5q-313 0 -425.5 78.5t-112.5 298.5v46v956h154v-956q0 -194 63 -243.5t310 -49.5q268 0 334 48.5t66 244.5v956z" />
    <glyph glyph-name="V" unicode="V" horiz-adv-x="1171" 
d="M1016 1365h165l-483 -1365h-220l-488 1365h164l364 -1031l36 -105q20 -61 33 -105h4q30 101 67 208z" />
    <glyph glyph-name="W" unicode="W" horiz-adv-x="2045" 
d="M2041 1365l-430 -1365h-234l-287 983l-36 123q-3 10 -17 61l-18 62h-3l-17 -62l-18 -62l-37 -124l-292 -981h-230l-419 1365h158l294 -981l40 -133l20 -66l19 -67h3l19 67l19 66l39 132l290 982h228l288 -983l39 -131l18 -67l19 -66h3l20 67l20 67l41 134l300 979h161z
" />
    <glyph glyph-name="X" unicode="X" horiz-adv-x="1190" 
d="M1167 1365l-436 -659l469 -706h-182l-316 478l-50 75q-4 6 -23 37l-24 38h-4l-24 -39q-20 -29 -25 -38l-52 -76l-321 -475h-189l488 706l-449 659h186l303 -455l42 -64l21 -32l20 -32h4l20 31q16 27 20 32l41 63l299 457h182z" />
    <glyph glyph-name="Y" unicode="Y" horiz-adv-x="1152" 
d="M1163 1365l-516 -795v-570h-154v570l-503 795h179l293 -461l56 -89q11 -16 28 -44l27 -45h4l27 45l27 44l57 89l292 461h183z" />
    <glyph glyph-name="Z" unicode="Z" horiz-adv-x="1161" 
d="M1095 1365v-130l-859 -1102v-3h877v-130h-1065v133l857 1099v3h-832v130h1022z" />
    <glyph glyph-name="AE" unicode="&#xc6;" horiz-adv-x="1902" 
d="M1120 1235v-468h682v-130h-682v-507h714v-130h-868v287h-637l-156 -287h-182l759 1365h1084v-130h-714zM966 417v818h-124l-441 -818h565z" />
    <glyph glyph-name="OE" unicode="&#x152;" horiz-adv-x="2020" 
d="M1233 1223v-453h689v-130h-689v-505h719v-130h-868l4 130h-4q-92 -149 -409 -149q-378 0 -488.5 99t-110.5 438q0 525 40 630q86 226 515 226q365 0 453 -156h4l-4 130h868v-130h-719zM581 1249q-259 0 -308.5 -83.5t-49.5 -519.5v-141q0 -104 10 -176q17 -133 93.5 -173
t311.5 -40q286 0 361 59t75 284l1 215l4 210l-7 141q-16 148 -98.5 186t-392.5 38z" />
    <glyph glyph-name="Oslash" unicode="&#xd8;" horiz-adv-x="1289" 
d="M20 7v152l76 73q-34 116 -34 469q0 459 98 568.5t510 109.5q371 0 469 -137l129 125v-152l-79 -77q37 -118 37 -406q0 -520 -87.5 -633t-490.5 -113q-391 0 -503 143zM256 235q42 -83 110.5 -101t341.5 -18q233 0 301.5 68.5t68.5 302.5l1 327l-8 145q-2 19 -9 56z
M1031 1138q-40 75 -109 93t-317 18q-272 0 -334 -70t-62 -378q0 -327 15 -444z" />
    <glyph glyph-name="Ccedilla" unicode="&#xc7;" horiz-adv-x="1222" 
d="M1025 456h153v-52q0 -279 -95 -348.5t-478 -69.5q-343 0 -436 122.5t-93 576.5q0 355 21 446.5t120 163.5q116 84 501 84q261 0 351.5 -81t90.5 -313l1 -37h-153l-1 42q0 165 -53.5 212t-241.5 47q-330 0 -403 -55t-73 -305q0 -575 49 -674t335 -99q272 0 339.5 43
t67.5 216zM641 -100l112 -63l-160 -224l-91 49z" />
    <glyph glyph-name="a" unicode="a" horiz-adv-x="1044" 
d="M269 688h-139q0 167 75.5 224.5t295.5 57.5q239 0 323 -70.5t84 -268.5v-631h-140l11 103l-3 1q-80 -118 -325 -118q-362 0 -362 291q0 173 81 239t293 66q252 0 302 -99l3 1v116q0 164 -45 212.5t-197 48.5q-258 0 -258 -145q0 -7 1 -28zM494 473q-161 0 -209.5 -34
t-48.5 -146q0 -116 48 -153.5t195 -37.5q296 0 296 180q0 113 -57.5 152t-223.5 39z" />
    <glyph glyph-name="b" unicode="b" horiz-adv-x="1047" 
d="M123 0v1365h140v-531l3 -3q48 139 314 139q210 0 290 -109t80 -395q0 -271 -84.5 -375.5t-305.5 -104.5q-225 0 -300 133l-4 -1l7 -118h-140zM544 854q-165 0 -221 -70.5t-56 -280.5q0 -259 50.5 -330t232.5 -71q154 0 203.5 72.5t49.5 297.5q0 237 -49 309.5t-210 72.5z
" />
    <glyph glyph-name="c" unicode="c" horiz-adv-x="993" 
d="M780 345h140l1 -52q0 -307 -402 -307q-258 0 -341 97t-83 400q0 284 84.5 385.5t321.5 101.5q233 0 318 -68.5t85 -257.5h-140v25q0 111 -55 148t-219 37q-158 0 -203 -70t-45 -314q0 -238 51.5 -303t240.5 -65q160 0 203 42.5t43 200.5z" />
    <glyph glyph-name="d" unicode="d" horiz-adv-x="1045" 
d="M922 1365v-1365h-140l7 124l-4 1q-66 -139 -307 -139q-220 0 -300.5 107t-80.5 399q0 269 81 373.5t290 104.5q261 0 311 -135l3 2v528h140zM501 854q-155 0 -206 -71.5t-51 -289.5q0 -240 50.5 -315.5t209.5 -75.5q173 0 225 75.5t52 328.5q0 205 -57.5 276.5
t-222.5 71.5z" />
    <glyph glyph-name="e" unicode="e" horiz-adv-x="1029" 
d="M788 289h143l1 -35q0 -149 -90.5 -208.5t-317.5 -59.5q-264 0 -346.5 96.5t-82.5 405.5q0 286 83 384t325 98q264 0 346 -85t82 -358v-75h-688q0 -226 48.5 -288t226.5 -62q169 0 219.5 29.5t50.5 127.5v30zM788 561l-1 45q0 155 -51 201.5t-220 46.5
q-170 0 -220.5 -54.5t-50.5 -238.5h543z" />
    <glyph glyph-name="f" unicode="f" horiz-adv-x="543" 
d="M160 0v840h-146v116h146v142q0 281 289 281q43 0 101 -7v-116q-68 7 -99 7q-151 0 -151 -152v-155h250v-116h-250v-840h-140z" />
    <glyph glyph-name="g" unicode="g" horiz-adv-x="1045" 
d="M923 956v-1018q0 -208 -90 -286t-330 -78q-214 0 -292 66t-78 247h135q0 -123 45.5 -160t199.5 -37q160 0 215 48t55 188v192l-3 1q-54 -133 -312 -133q-212 0 -292 104.5t-80 381.5q0 287 81.5 392.5t302.5 105.5q235 0 307 -144l3 1l-7 129h140zM506 854
q-165 0 -214 -69.5t-49 -304.5q0 -237 49 -307.5t214 -70.5q167 0 220 77.5t53 322.5q0 216 -53 284t-220 68z" />
    <glyph glyph-name="h" unicode="h" horiz-adv-x="1053" 
d="M263 1365v-527l3 -2q53 134 296 134q360 0 360 -320v-39v-611h-140v611v27q0 216 -221 216q-178 0 -238 -63.5t-60 -252.5v-538h-140v1365h140z" />
    <glyph glyph-name="i" unicode="i" horiz-adv-x="385" 
d="M263 1365v-157h-140v157h140zM263 956v-956h-140v956h140z" />
    <glyph glyph-name="j" unicode="j" horiz-adv-x="381" 
d="M254 1365v-157h-140v157h140zM254 956v-1044v-41q0 -237 -197 -237q-29 0 -67 7v99q12 2 16 2l18 1l58 19q32 27 32 150v1044h140z" />
    <glyph glyph-name="k" unicode="k" horiz-adv-x="881" 
d="M263 1365v-793h64l338 384h176l-409 -439l483 -517h-189l-406 463h-57v-463h-140v1365h140z" />
    <glyph glyph-name="l" unicode="l" horiz-adv-x="386" 
d="M263 1365v-1365h-140v1365h140z" />
    <glyph glyph-name="m" unicode="m" horiz-adv-x="1691" 
d="M123 956h140l-3 -144l3 -3q81 161 312 161q243 0 295 -161h4q90 161 329 161q338 0 338 -345v-625h-140v638q0 126 -45 171t-170 45q-166 0 -225 -62.5t-59 -238.5v-553h-140v625l-2 44q0 185 -211 185q-286 0 -286 -311v-543h-140v956z" />
    <glyph glyph-name="n" unicode="n" horiz-adv-x="1056" 
d="M123 956h135l-4 -130l4 -3q64 147 318 147q205 0 277.5 -72t72.5 -276v-622h-140v610v36q0 123 -47 165.5t-181 42.5q-295 0 -295 -279v-575h-140v956z" />
    <glyph glyph-name="o" unicode="o" horiz-adv-x="1036" 
d="M518 970q265 0 344 -92t79 -400t-79 -400t-344 -92q-264 0 -343 92t-79 400t79 400t343 92zM518 854q-186 0 -230.5 -60.5t-44.5 -315.5t44.5 -315.5t230.5 -60.5q187 0 231.5 60.5t44.5 315.5t-44.5 315.5t-231.5 60.5z" />
    <glyph glyph-name="p" unicode="p" horiz-adv-x="1045" 
d="M123 956h140l-7 -121l4 -3q73 138 314 138q213 0 293 -108t80 -398q0 -269 -81 -373.5t-288 -104.5q-236 0 -312 127h-3v-523h-140v1366zM535 854q-168 0 -219 -72.5t-51 -311.5q0 -221 55 -294.5t221 -73.5q158 0 208.5 71t50.5 293q0 244 -49 316t-216 72z" />
    <glyph glyph-name="q" unicode="q" horiz-adv-x="1044" 
d="M922 956v-1366h-140v526l-3 3q-63 -133 -314 -133q-207 0 -288 108t-81 385t82 384t295 107q234 0 313 -135l3 3l-7 118h140zM495 854q-155 0 -203.5 -75t-48.5 -314q0 -224 50 -293.5t210 -69.5q163 0 219 71.5t56 281.5q0 254 -51.5 326.5t-231.5 72.5z" />
    <glyph glyph-name="r" unicode="r" horiz-adv-x="816" 
d="M137 956h140l-14 -110l3 -3q83 135 274 135q264 0 264 -272l-1 -66h-138l3 24q3 38 3 51q0 147 -160 147q-234 0 -234 -289v-573h-140v956z" />
    <glyph glyph-name="s" unicode="s" horiz-adv-x="970" 
d="M864 706h-140q0 100 -40.5 124t-208.5 24q-156 0 -198 -25.5t-42 -122.5q0 -147 141 -154l113 -6l143 -7q260 -13 260 -272q0 -161 -86 -221t-315 -60q-235 0 -323.5 57t-88.5 209l1 52h145l1 -45q0 -94 48 -125.5t189 -31.5q173 0 227.5 33t54.5 138q0 151 -137 151
q-319 0 -419.5 54t-100.5 224q0 161 79.5 214.5t316.5 53.5q380 0 380 -229v-35z" />
    <glyph glyph-name="t" unicode="t" horiz-adv-x="667" 
d="M630 956v-116h-368v-585q0 -153 136 -153q135 0 135 137l1 47l2 53h130l1 -71q0 -282 -268 -282q-277 0 -277 235v34v585h-132v116h132v230h140v-230h368z" />
    <glyph glyph-name="u" unicode="u" horiz-adv-x="1039" 
d="M903 956v-956h-140l10 125l-3 3q-73 -142 -312 -142q-335 0 -335 334v636h140v-636q0 -130 43 -174t169 -44q165 0 226.5 65.5t61.5 240.5v548h140z" />
    <glyph glyph-name="v" unicode="v" horiz-adv-x="824" 
d="M831 956l-320 -956h-201l-317 956h144l169 -520l53 -163l25 -82l26 -82h4l24 81l24 82l51 162l162 522h156z" />
    <glyph glyph-name="w" unicode="w" horiz-adv-x="1373" 
d="M1367 956l-268 -956h-208l-128 531l-39 162l-18 81l-19 81h-3l-19 -81l-19 -81l-39 -162l-129 -531h-212l-259 956h147l135 -529l42 -166l20 -83l20 -83h4l19 83l20 83l40 165l131 530h204l130 -531l40 -165l19 -82l19 -83h3l21 83l20 83l42 166l134 529h150z" />
    <glyph glyph-name="x" unicode="x" horiz-adv-x="827" 
d="M797 956l-310 -450l347 -506h-167l-253 386l-254 -386h-167l347 500l-311 456h168l217 -349l216 349h167z" />
    <glyph glyph-name="y" unicode="y" horiz-adv-x="796" 
d="M802 956l-271 -1011q-57 -214 -126.5 -294t-198.5 -80q-26 0 -67 7v116q29 -6 49 -7q113 -6 168 183l27 94q1 5 9 36h-53l-346 956h149l147 -426l74 -212l36 -107l37 -106h4l26 106l25 107l54 212l108 426h149z" />
    <glyph glyph-name="z" unicode="z" horiz-adv-x="826" 
d="M92 956h689v-136l-570 -704h570v-116h-737v133l572 707h-524v116z" />
    <glyph glyph-name="ae" unicode="&#xe6;" horiz-adv-x="1697" 
d="M1599 463h-681v-40q0 -212 49 -266.5t241 -54.5q152 0 200 31.5t48 130.5l1 25h142v-40q0 -263 -408 -263q-291 0 -352 161h-3q-62 -161 -347 -161q-400 0 -400 293q0 164 84.5 227.5t303.5 63.5q233 0 296 -97h3v162q0 138 -50.5 182t-208.5 44q-245 0 -245 -142v-21
h-148q13 168 81.5 220t276.5 52q318 0 369 -123h3q69 123 333 123q249 0 330 -86.5t81 -351.5zM1457 579l-1 48q0 134 -53.5 180.5t-207.5 46.5q-162 0 -219.5 -50t-57.5 -191l-1 -34h540zM474 454q-238 0 -238 -168q0 -108 55 -146t212 -38q274 0 274 180
q0 101 -62.5 136.5t-240.5 35.5z" />
    <glyph glyph-name="oe" unicode="&#x153;" horiz-adv-x="1714" 
d="M1617 463h-676l-1 -54q0 -193 51 -250t225 -57q162 0 210 35t48 152h143q0 -187 -84.5 -245t-356.5 -58q-243 0 -311 135h-3q-58 -135 -350 -135q-261 0 -339 94.5t-78 412.5q0 289 78.5 383t320.5 94q326 0 368 -139h3q61 139 340 139q247 0 329.5 -86.5t82.5 -344.5
v-76zM1474 579q0 169 -48.5 222t-203.5 53q-176 0 -230.5 -52.5t-54.5 -222.5h537zM518 854q-187 0 -231.5 -60.5t-44.5 -315.5t44.5 -315.5t231.5 -60.5t231.5 60.5t44.5 315.5q0 254 -44.5 315t-231.5 61z" />
    <glyph glyph-name="oslash" unicode="&#xf8;" horiz-adv-x="1037" 
d="M59 -33v129l69 66q-33 98 -33 315q0 310 79.5 401.5t348.5 91.5q263 0 342 -100l112 108v-128l-68 -66q32 -95 32 -290q0 -312 -77 -410t-323 -98q-279 0 -365 93zM278 178q43 -76 217 -76q207 0 253 60t46 331q0 85 -7 174zM763 772q-43 82 -224 82q-205 0 -251 -58.5
t-46 -319.5q0 -112 8 -197z" />
    <glyph glyph-name="germandbls" unicode="&#xdf;" horiz-adv-x="1073" 
d="M130 0v1055v40q0 284 373 284q378 0 378 -269q0 -184 -178 -227v-2q151 -31 202.5 -116.5t51.5 -306.5q0 -263 -71 -367.5t-251 -104.5q-270 0 -270 286l1 20h137l1 -29q0 -161 132 -161q108 0 141 68t33 288q0 217 -55.5 289.5t-219.5 72.5h-78h-39v121h32l50 1
q234 0 234 145q0 111 -44.5 143.5t-195.5 32.5q-224 0 -224 -195v-1068h-140z" />
    <glyph glyph-name="dotlessi" unicode="&#x131;" horiz-adv-x="385" 
d="M263 956v-956h-140v956h140z" />
    <glyph glyph-name="fi" unicode="&#xf001;" horiz-adv-x="935" 
d="M160 0v840h-146v116h146v142q0 281 289 281q43 0 101 -7v-116q-68 7 -99 7q-151 0 -151 -152v-155h250v-116h-250v-840h-140zM813 1365v-157h-140v157h140zM813 956v-956h-140v956h140z" />
    <glyph glyph-name="fl" unicode="&#xf002;" horiz-adv-x="935" 
d="M160 0v840h-146v116h146v142q0 281 289 281q43 0 101 -7v-116q-68 7 -99 7q-151 0 -151 -152v-155h250v-116h-250v-840h-140zM813 1365v-1365h-140v1365h140z" />
    <glyph glyph-name="ccedilla" unicode="&#xe7;" horiz-adv-x="993" 
d="M780 345h140l1 -52q0 -307 -402 -307q-258 0 -341 97t-83 400q0 284 84.5 385.5t321.5 101.5q233 0 318 -68.5t85 -257.5h-140v25q0 111 -55 148t-219 37q-158 0 -203 -70t-45 -314q0 -238 51.5 -303t240.5 -65q160 0 203 42.5t43 200.5zM506 -100l98 -54l-140 -195
l-79 42z" />
    <glyph glyph-name="one" unicode="1" horiz-adv-x="1257" 
d="M810 1365v-1365h-154v1250l-349 -387l-97 92l378 410h222z" />
    <glyph glyph-name="two" unicode="2" 
d="M1094 130v-130h-983v257q0 216 84 283t399 103q252 28 304.5 76t52.5 249q0 176 -58.5 228.5t-255.5 52.5q-246 0 -310.5 -42.5t-64.5 -204.5l2 -102h-151l1 71q0 245 103.5 326.5t414.5 81.5q276 0 371 -88t95 -343q0 -245 -88.5 -327.5t-384.5 -111.5
q-260 -26 -310 -72t-50 -261v-46h829z" />
    <glyph glyph-name="three" unicode="3" 
d="M500 633v131l52 -1q276 0 337.5 35t61.5 191q0 180 -53.5 220t-295.5 40q-223 0 -275.5 -39t-52.5 -205v-59h-146l1 54q0 234 91 306.5t384 72.5q301 0 397.5 -67.5t96.5 -278.5q0 -179 -46 -245t-184 -83v-7q155 -21 205.5 -84t50.5 -234q0 -238 -98.5 -316t-397.5 -78
q-323 0 -423 72t-100 305v81h150v-79q0 -174 59 -211.5t335 -37.5q214 0 271 47.5t57 227.5q0 151 -54 196.5t-235 45.5h-130h-58z" />
    <glyph glyph-name="four" unicode="4" 
d="M972 1365v-920h204v-130h-204v-315h-154v315h-764v181l680 869h238zM818 445v821h-3l-634 -821h637z" />
    <glyph glyph-name="five" unicode="5" 
d="M1077 1365v-130h-766l-7 -414h3q80 113 359 113q270 0 368.5 -93t98.5 -350q0 -314 -93.5 -409.5t-398.5 -95.5q-303 0 -405.5 71t-102.5 281v52h145q0 -185 57.5 -229.5t293.5 -44.5q247 0 302 57t55 312q0 206 -61.5 262.5t-285.5 56.5q-312 0 -342 -131h-139v692h919z
" />
    <glyph glyph-name="six" unicode="6" horiz-adv-x="1255" 
d="M1082 1020h-150q4 37 4 49q0 109 -55 144.5t-225 35.5q-258 0 -326.5 -44t-68.5 -209v-278h3q87 122 393 122q275 0 368 -84t93 -332q0 -269 -97 -353.5t-406 -84.5q-315 0 -414 92.5t-99 387.5l-3 248l4 220q0 270 94 357.5t384 87.5q293 0 397.5 -65t104.5 -247z
M608 710q-225 0 -293.5 -45t-68.5 -193q0 -240 60 -298t307 -58q240 0 299 47t59 241q0 208 -58 257t-305 49z" />
    <glyph glyph-name="seven" unicode="7" 
d="M1093 1365v-196l-661 -1169h-183l716 1235h-867v130h995z" />
    <glyph glyph-name="eight" unicode="8" horiz-adv-x="1257" 
d="M890 709v-3q144 -29 188.5 -89.5t44.5 -225.5q0 -250 -94 -327.5t-397 -77.5q-333 0 -430.5 71.5t-97.5 315.5q0 179 45 243t192 92v3q-135 29 -177 89.5t-42 226.5q0 217 92 284.5t386 67.5q324 0 416 -65.5t92 -297.5q0 -156 -43.5 -217t-174.5 -90zM602 1249
q-233 0 -283 -36.5t-50 -205.5q0 -165 62 -201.5t341 -36.5q186 0 237.5 46t51.5 211q0 153 -56.5 188t-302.5 35zM604 639q-237 0 -295 -42t-58 -214q0 -163 42.5 -213.5t180.5 -50.5l193 -3l128 8q111 14 146 68t35 212q0 153 -65 194t-307 41z" />
    <glyph glyph-name="nine" unicode="9" horiz-adv-x="1257" 
d="M104 348h145l-1 -40q0 -126 60 -159t286 -33q258 0 315 50.5t57 279.5v205h-3q-80 -122 -410 -122q-260 0 -350 83t-90 322q0 274 95 359.5t399 85.5q312 0 413 -89t101 -365l4 -367l-3 -141q0 -262 -99 -346.5t-407 -84.5q-303 0 -409 62.5t-106 242.5q0 16 3 57z
M593 1249q-223 0 -278 -48.5t-55 -245.5q0 -193 54 -244.5t258 -51.5q265 0 329 41.5t64 212.5q0 229 -59 282.5t-313 53.5z" />
    <glyph glyph-name="zero" unicode="0" 
d="M628 1379q379 0 457 -101.5t78 -594.5q0 -470 -74 -570q-95 -127 -461 -127t-461 127q-74 100 -74 619q0 449 82 548t453 99zM628 1249q-287 0 -337.5 -74t-50.5 -492q0 -419 50.5 -493t337.5 -74t337.5 74t50.5 493q0 418 -50.5 492t-337.5 74z" />
    <glyph glyph-name="sterling" unicode="&#xa3;" horiz-adv-x="1257" 
d="M805 664v-130h-387v-64l1 -109l-15 -122q-18 -61 -100 -119v-3l885 10v-127h-1062v117q137 30 137 304v113h-169v130h169v208l-2 121l7 113q37 273 433 273q266 0 364.5 -75t98.5 -277l-2 -70h-148v34q0 169 -50 213.5t-237 44.5q-204 0 -256.5 -44.5t-52.5 -216.5
l-1 -50v-274h387z" />
    <glyph glyph-name="dollar" unicode="$" horiz-adv-x="1257" 
d="M688 1233v-474q304 0 408.5 -76t104.5 -298q0 -221 -99.5 -302.5t-369.5 -81.5l-44 -1v-154h-116v154h-99q-76 0 -126 4q-292 23 -292 421h151v-25q0 -183 52.5 -228.5t265.5 -45.5l48 -2v505q-309 0 -406 71t-97 298q0 219 101.5 293t401.5 74v127h116v-127l57 -1
q251 0 338 -69.5t87 -268.5l-1 -43h-148l-1 34q0 140 -48.5 178t-226.5 38h-57zM572 1235h-47q-193 0 -251 -41.5t-58 -177.5q0 -161 59.5 -208.5t260.5 -47.5l36 -1v476zM688 124q37 -6 55 -8q311 -25 311 269q0 150 -62.5 195.5t-266.5 45.5l-37 1v-503z" />
    <glyph glyph-name="cent" unicode="&#xa2;" horiz-adv-x="1255" 
d="M662 1005v-750q214 0 214 189l1 53h140l-1 -37q0 -321 -354 -321v-146h-116v146q-210 0 -286.5 109.5t-76.5 409.5q0 460 363 460v133h116v-133q336 0 336 -278l-1 -44h-140q0 127 -35.5 165t-159.5 44zM546 1008q-134 -10 -175 -74.5t-41 -265.5q0 -257 39 -330.5
t177 -80.5v751z" />
    <glyph glyph-name="florin" unicode="&#x192;" 
d="M752 908l-159 -900q-30 -170 -97 -227t-234 -57q-53 0 -116 7l21 118q67 -9 105 -9q146 0 174 156l161 912h-188l21 116h187l37 210q30 170 98 227t242 57q33 0 107 -4l-21 -118q-63 6 -105 6q-146 0 -174 -155l-39 -223h253l-21 -116h-252z" />
    <glyph glyph-name="yen" unicode="&#xa5;" horiz-adv-x="1257" 
d="M920 934h186v-130h-264l-125 -201h389v-130h-408v-473h-154v473h-394v130h375l-121 201h-254v130h178l-259 431h179l376 -638h4l376 638h183z" />
    <glyph glyph-name="period" unicode="." horiz-adv-x="400" 
d="M277 184v-184h-154v184h154z" />
    <glyph glyph-name="colon" unicode=":" horiz-adv-x="400" 
d="M277 184v-184h-154v184h154zM277 956v-184h-154v184h154z" />
    <glyph glyph-name="periodcentered" unicode="&#x2219;" horiz-adv-x="400" 
d="M277 566v-184h-154v184h154z" />
    <glyph glyph-name="ellipsis" unicode="&#x2026;" horiz-adv-x="1223" 
d="M277 184v-184h-154v184h154zM685 184v-184h-154v184h154zM1100 184v-184h-154v184h154z" />
    <glyph glyph-name="comma" unicode="," horiz-adv-x="406" 
d="M283 184v-198q0 -187 -136 -187q-13 0 -38 2v76q86 5 86 88l-1 35h-65v184h154z" />
    <glyph glyph-name="semicolon" unicode=";" horiz-adv-x="365" 
d="M242 184v-198q0 -187 -136 -187q-13 0 -38 2v76q86 5 86 88l-1 35h-65v184h154zM232 956v-184h-154v184h154z" />
    <glyph glyph-name="quoteleft" unicode="&#x2018;" horiz-adv-x="366" 
d="M86 1008v199q0 186 136 186q15 0 46 -2v-77q-94 0 -94 -87l1 -35h65v-184h-154z" />
    <glyph glyph-name="quotedblright" unicode="&#x201d;" horiz-adv-x="653" 
d="M272 1365v-199q0 -187 -136 -187q-12 0 -38 2v77q86 5 86 88l-1 35h-65v184h154zM567 1365v-199q0 -187 -136 -187q-16 0 -46 2v77q94 0 94 88l-1 35h-65v184h154z" />
    <glyph glyph-name="quotedblleft" unicode="&#x201c;" horiz-adv-x="653" 
d="M381 1008v199q0 186 136 186q11 0 38 -2v-77q-86 -5 -86 -87l1 -35h65v-184h-154zM86 1008v199q0 186 136 186q15 0 46 -2v-77q-94 0 -94 -87l1 -35h65v-184h-154z" />
    <glyph glyph-name="quotedblbase" unicode="&#x201e;" horiz-adv-x="653" 
d="M272 184v-198q0 -187 -136 -187q-13 0 -38 2v76q86 5 86 88l-1 35h-65v184h154zM567 184v-198q0 -187 -136 -187q-17 0 -46 2v76q94 0 94 88l-1 35h-65v184h154z" />
    <glyph glyph-name="exclam" unicode="!" horiz-adv-x="491" 
d="M322 184v-184h-154v184h154zM328 1365l-20 -988h-131l-17 988h168z" />
    <glyph glyph-name="exclamdown" unicode="&#xa1;" horiz-adv-x="491" 
d="M162 772v184h154v-184h-154zM162 -410l20 989h131l17 -989h-168z" />
    <glyph glyph-name="question" unicode="?" horiz-adv-x="1064" 
d="M541 184v-184h-154v184h154zM546 394h-151l1 30q0 137 38.5 191t170.5 104l83 32q126 48 126 242q0 169 -46.5 212.5t-229.5 43.5q-188 0 -236.5 -46t-48.5 -226l1 -39h-145l1 45q0 244 86.5 320t364.5 76q234 0 317 -77t83 -295q0 -312 -193 -381l-84 -30
q-137 -49 -137 -168z" />
    <glyph glyph-name="questiondown" unicode="&#xbf;" horiz-adv-x="1064" 
d="M517 772v184h154v-184h-154zM517 562h151l-1 -30q0 -137 -38 -191t-171 -104l-83 -32q-126 -48 -126 -242q0 -170 46.5 -213.5t229.5 -43.5q188 0 236.5 46.5t48.5 226.5v39h144v-45q0 -245 -86.5 -321t-365.5 -76q-234 0 -317 77t-83 296q0 313 194 381l83 30
q138 48 138 168v34z" />
    <glyph glyph-name="guillemotright" unicode="&#xbb;" horiz-adv-x="915" 
d="M566 1047l246 -522l-275 -525l-99 66l238 459l-215 458zM230 1047l246 -522l-275 -525l-99 66l238 459l-215 458z" />
    <glyph glyph-name="guillemotleft" unicode="&#xab;" horiz-adv-x="915" 
d="M348 1047l105 -64l-215 -458l238 -459l-99 -66l-275 525zM684 1047l105 -64l-215 -458l238 -459l-99 -66l-275 525z" />
    <glyph glyph-name="guilsinglright" unicode="&#x203a;" horiz-adv-x="578" 
d="M230 1047l246 -522l-275 -525l-99 66l238 459l-215 458z" />
    <glyph glyph-name="guilsinglleft" unicode="&#x2039;" horiz-adv-x="578" 
d="M348 1047l105 -64l-215 -458l238 -459l-99 -66l-275 525z" />
    <glyph glyph-name="slash" unicode="/" horiz-adv-x="1323" 
d="M1179 1365l-1200 -1775h-115l1201 1775h114z" />
    <glyph glyph-name="hyphen" unicode="-" horiz-adv-x="425" 
d="M3 562h422v-130h-425z" />
    <glyph glyph-name="hyphen" unicode="&#xad;" horiz-adv-x="425" 
d="M3 562h422v-130h-425z" />
    <glyph glyph-name="endash" unicode="&#x2013;" 
d="M227 562h803v-130h-803v130z" />
    <glyph glyph-name="emdash" unicode="&#x2014;" horiz-adv-x="1417" 
d="M9 562h1408v-130h-1417z" />
    <glyph glyph-name="parenleft" unicode="(" horiz-adv-x="568" 
d="M465 -286v-130l-38 -1q-233 0 -278.5 125t-45.5 770t45.5 770t278.5 125l38 -1v-130q-146 0 -174.5 -73t-28.5 -447l1 -244v-245q0 -373 28.5 -446t173.5 -73z" />
    <glyph glyph-name="parenright" unicode=")" horiz-adv-x="568" 
d="M102 1242v130l38 1q233 0 278.5 -125t45.5 -770t-45.5 -770t-278.5 -125l-38 1v130q145 0 173.5 73t28.5 446v245l1 244q0 374 -28.5 447t-174.5 73z" />
    <glyph glyph-name="bracketleft" unicode="[" horiz-adv-x="567" 
d="M113 1365h349v-116h-195v-1543h195v-116h-349v1775z" />
    <glyph glyph-name="bracketright" unicode="]" horiz-adv-x="567" 
d="M454 -410h-349v116h195v1543h-195v116h349v-1775z" />
    <glyph glyph-name="ampersand" unicode="&#x26;" horiz-adv-x="1434" 
d="M1054 603h152l1 -36l1 -69q0 -109 -16 -194l239 -197l-84 -107l-202 167q-85 -181 -458 -181q-360 0 -465 80t-105 355q0 181 48.5 253t189.5 101q13 3 41 9q-124 104 -124 239q0 191 85.5 260.5t320.5 69.5q230 0 314 -68t84 -254l-2 -85h-151v51q0 152 -41 189t-210 37
q-153 0 -203 -33t-50 -134q0 -114 87 -182l34 -28l514 -428v28v56v70v31zM492 701q-155 -34 -191.5 -79.5t-36.5 -204.5q0 -208 60.5 -254.5t333.5 -46.5q327 0 367 146z" />
    <glyph glyph-name="section" unicode="&#xa7;" horiz-adv-x="1257" 
d="M1071 1017h-134l-1 56q0 112 -57 144t-257 32q-184 0 -233 -31.5t-49 -149.5q0 -148 100 -179l88 -26l306 -91q175 -51 220.5 -97t45.5 -171q0 -214 -132 -269q135 -65 135 -270q0 -222 -90.5 -290t-387.5 -68q-292 0 -378 70t-86 309h138q0 -167 49.5 -208t253.5 -41
q247 0 307.5 36t60.5 182q0 97 -32.5 130.5t-158.5 67.5l-421 111q-125 33 -164.5 90.5t-39.5 204.5q0 204 156 240q-103 66 -103 241q0 208 76.5 273.5t321.5 65.5q307 0 386.5 -61.5t79.5 -300.5zM439 386l308 -86q61 -17 102 -17q118 0 118 209q0 100 -163 148l-295 87
q-70 21 -102 21q-120 0 -120 -193q0 -126 152 -169z" />
    <glyph glyph-name="dagger" unicode="&#x2020;" 
d="M706 1365v-375h313v-116h-313v-1284h-154v1284h-316v116h316v375h154z" />
    <glyph glyph-name="daggerdbl" unicode="&#x2021;" 
d="M706 1365v-375h313v-116h-313v-792h313v-116h-313v-376h-154v376h-316v116h316v792h-316v116h316v375h154z" />
    <glyph glyph-name="asterisk" unicode="*" horiz-adv-x="1257" 
d="M994 1074l-281 -105l167 -238l-80 -60l-170 247l-183 -247l-80 60l175 238l-279 105l35 100l280 -100v291h102v-291l278 100z" />
    <glyph glyph-name="quotesingle" unicode="'" horiz-adv-x="323" 
d="M211 819h-99l-19 546h138z" />
    <glyph glyph-name="quotedbl" unicode="&#x22;" horiz-adv-x="639" 
d="M211 819h-99l-19 546h138zM527 819h-99l-20 546h138z" />
    <glyph glyph-name="at" unicode="@" horiz-adv-x="1290" 
d="M837 969h102v-471l2 -43q0 -108 83 -108q99 0 99 351q0 296 -67 358.5t-384 62.5q-354 0 -429.5 -74t-75.5 -420q0 -368 83.5 -450t460.5 -82q256 0 300 82l68 -49q-60 -105 -385 -105q-395 0 -503.5 106.5t-108.5 495.5q0 381 103 483t487 102q339 0 437.5 -85
t98.5 -379q0 -268 -39 -368.5t-143 -100.5q-145 0 -168 110h-4q-48 -116 -243 -116q-150 0 -206 76t-56 280q0 198 56.5 271t208.5 73q177 0 220 -94h3v94zM643 897q-122 0 -157 -50t-35 -225q0 -172 35 -226.5t147 -54.5q135 0 169 56.5t34 282.5q0 217 -193 217z" />
    <glyph glyph-name="numbersign" unicode="#" 
d="M1101 525l-16 -92h-236l-68 -433h-109l69 433h-304l-68 -433h-108l69 433h-236l15 92h236l49 320h-236l16 92h236l67 428h108l-68 -428h303l68 428h109l-68 -428h234l-16 -92h-234l-48 -320h236zM805 845h-303l-49 -320h303z" />
    <glyph glyph-name="degree" unicode="&#xb0;" horiz-adv-x="749" 
d="M375 1381q116 0 198.5 -81t82.5 -195t-82.5 -195t-198.5 -81q-117 0 -199.5 81t-82.5 195q0 115 82.5 195.5t199.5 80.5zM375 1297q-197 0 -197 -192t197 -192q196 0 196 192t-196 192z" />
    <glyph glyph-name="plus" unicode="+" 
d="M558 210v407h-403v130h403v409h140v-409h403v-130h-403v-407h-140z" />
    <glyph glyph-name="divide" unicode="&#xf7;" 
d="M628 1109q93 0 93 -92q0 -93 -93 -93q-92 0 -92 93q0 92 92 92zM628 442q93 0 93 -92q0 -93 -93 -93q-92 0 -92 93q0 92 92 92zM155 747h946v-130h-946v130z" />
    <glyph glyph-name="equal" unicode="=" 
d="M155 918h946v-130h-946v130zM155 577h946v-130h-946v130z" />
    <glyph glyph-name="trademark" unicode="&#x2122;" horiz-adv-x="1630" 
d="M357 1273v-686h-102v686h-258v92h617v-92h-257zM1562 1365v-778h-102v618v15v31v14q-3 -9 -5 -12l-6 -15l-6 -14l-272 -637h-99l-272 629l-6 12l-6 14q-2 4 -6 15v-18v-17v-17v-618h-102v778h166l213 -499l34 -80l16 -40l11 -26q9 19 12 26l16 40l34 80l212 499h168z" />
    <glyph glyph-name="paragraph" unicode="&#xb6;" horiz-adv-x="1260" 
d="M1092 -410h-140v1645h-160v-1645h-140v945h-80l-47 1q-248 0 -338.5 85t-90.5 318q0 245 85 335.5t314 90.5h52h545v-1775z" />
    <glyph glyph-name="currency" unicode="&#xa4;" horiz-adv-x="1365" 
d="M119 250l190 193q-104 136 -104 290q0 152 104 291l-195 193l80 80l193 -193q143 107 299 107q151 0 290 -106l194 191l79 -79l-192 -191q105 -142 105 -294q0 -149 -103 -289l193 -193l-79 -80l-193 193q-137 -105 -297 -105q-146 0 -293 105l-192 -193zM684 1081
q-144 0 -245 -102t-101 -246q0 -142 101.5 -243.5t244.5 -101.5q142 0 243.5 101.5t101.5 243.5q0 145 -101 246.5t-244 101.5z" />
    <glyph glyph-name="quotesinglbase" unicode="&#x201a;" horiz-adv-x="406" 
d="M283 184v-198q0 -187 -136 -187q-13 0 -38 2v76q86 5 86 88l-1 35h-65v184h154z" />
    <glyph glyph-name="quoteright" unicode="&#x2019;" horiz-adv-x="406" 
d="M297 1365v-199q0 -187 -136 -187q-12 0 -38 2v77q86 5 86 88l-1 35h-65v184h154z" />
    <glyph glyph-name="braceleft" unicode="{" horiz-adv-x="783" 
d="M300 479q128 -61 128 -238v-341q0 -197 171 -197h14v-113h-88q-237 0 -237 307v338q0 152 -117 187v113q117 34 117 188v337q0 305 237 305h88v-111q-185 0 -185 -197v-341q0 -177 -128 -237z" />
    <glyph glyph-name="braceright" unicode="}" horiz-adv-x="783" 
d="M488 477q-128 60 -128 237v341q0 197 -175 197h-14v113h90q239 0 239 -307v-338q0 -152 113 -187v-113q-113 -36 -113 -187v-338q0 -305 -239 -305h-90v111q189 0 189 197v341q0 177 128 238z" />
    <glyph glyph-name="ordfeminine" unicode="&#xaa;" horiz-adv-x="837" 
d="M269 1202h-98q0 102 46 136.5t184 34.5q255 0 255 -196v-358h-103l6 45q-63 -53 -179 -53q-233 0 -233 168q0 177 231 177q123 0 176 -41v45q0 90 -25.5 115.5t-116.5 25.5q-144 0 -144 -76zM396 1084q-147 0 -147 -98q0 -103 145 -103q164 0 164 97q0 104 -162 104z
M119 724h572v-82h-574z" />
    <glyph glyph-name="ordmasculine" unicode="&#xba;" horiz-adv-x="837" 
d="M419 1386q166 0 216.5 -54.5t50.5 -233.5q0 -178 -50.5 -232.5t-216.5 -54.5t-216.5 54.5t-50.5 233.5q0 178 50.5 232.5t216.5 54.5zM419 1297q-103 0 -127 -31.5t-24 -166.5q0 -137 23.5 -168t127.5 -31q103 0 127 31.5t24 167.5q0 135 -24 166.5t-127 31.5zM134 724
h572v-82h-574z" />
    <glyph glyph-name="plusminus" unicode="&#xb1;" horiz-adv-x="1257" 
d="M148 896h404v354h154v-354h402v-143h-402v-350h-154v350h-404v143zM148 267h960v-143h-960v143z" />
    <glyph glyph-name="fraction" unicode="&#x2215;" horiz-adv-x="273" 
d="M652 1365l-927 -1365h-103l922 1365h108z" />
    <glyph glyph-name="percent" unicode="%" horiz-adv-x="1609" 
d="M333 1370q205 0 251 -53.5t46 -288.5t-46 -293t-234 -58q-211 0 -263.5 59t-52.5 296q0 217 53.5 277.5t245.5 60.5zM331 1298q-148 0 -180 -39t-32 -218q0 -218 33.5 -255t233.5 -37q159 0 159 159v118v111q0 109 -34.5 135t-179.5 26zM1315 1365l-927 -1365h-93
l921 1365h99zM1274 688q205 0 251 -53.5t46 -288.5q0 -236 -46 -293.5t-234 -57.5q-211 0 -263.5 59t-52.5 296q0 217 53.5 277.5t245.5 60.5zM1272 616q-148 0 -180 -39t-32 -218q0 -218 33.5 -255t233.5 -37q159 0 159 159v118v111q0 109 -35 135t-179 26z" />
    <glyph glyph-name="perthousand" unicode="&#x2030;" horiz-adv-x="2337" 
d="M333 1370q205 0 251 -53.5t46 -288.5t-46 -293t-234 -58q-211 0 -263.5 59t-52.5 296q0 217 53.5 277.5t245.5 60.5zM331 1298q-148 0 -180 -39t-32 -218q0 -218 33.5 -255t233.5 -37q159 0 159 159v118v111q0 109 -34.5 135t-179.5 26zM1315 1365l-927 -1365h-93
l921 1365h99zM1274 688q205 0 251 -53.5t46 -288.5q0 -236 -46 -293.5t-234 -57.5q-211 0 -263.5 59t-52.5 296q0 217 53.5 277.5t245.5 60.5zM1272 616q-148 0 -180 -39t-32 -218q0 -218 33.5 -255t233.5 -37q159 0 159 159v118v111q0 109 -35 135t-179 26zM2002 688
q204 0 250.5 -53.5t46.5 -288.5q0 -236 -46 -293.5t-235 -57.5q-211 0 -263.5 59t-52.5 296q0 217 53.5 277.5t246.5 60.5zM1999 616q-147 0 -179.5 -39t-32.5 -218q0 -218 34 -255t233 -37q160 0 160 159v118v111q0 109 -35 135t-180 26z" />
    <glyph glyph-name="backslash" unicode="\" horiz-adv-x="1323" 
d="M-136 1365h115l1200 -1775h-114z" />
    <glyph glyph-name="dieresis" unicode="&#xa8;" horiz-adv-x="1024" 
d="M404 1256v-130h-154v130h154zM774 1256v-130h-154v130h154z" />
    <glyph glyph-name="dotaccent" unicode="&#x2d9;" horiz-adv-x="1017" 
d="M586 1256v-130h-154v130h154z" />
    <glyph glyph-name="ring" unicode="&#x2da;" horiz-adv-x="1024" 
d="M512 1365q157 0 157 -157t-157 -157t-157 157t157 157zM512 1293q-89 0 -89 -85t89 -85t89 85t-89 85z" />
    <glyph glyph-name="acute" unicode="&#xb4;" horiz-adv-x="1024" 
d="M666 1351l72 -98l-295 -181l-48 74z" />
    <glyph glyph-name="grave" unicode="`" horiz-adv-x="1024" 
d="M358 1351l271 -205l-49 -74l-294 181z" />
    <glyph glyph-name="circumflex" unicode="&#x2c6;" horiz-adv-x="1024" 
d="M512 1353l262 -209l-56 -71l-206 152l-206 -152l-57 71z" />
    <glyph glyph-name="caron" unicode="&#x2c7;" horiz-adv-x="1024" 
d="M512 1073l-263 209l57 71l206 -152l206 152l56 -71z" />
    <glyph glyph-name="breve" unicode="&#x2d8;" horiz-adv-x="1024" 
d="M247 1328h97q31 -141 168 -141q138 0 168 141h98q-40 -250 -266 -250q-225 0 -265 250z" />
    <glyph glyph-name="tilde" unicode="&#x2dc;" horiz-adv-x="1024" 
d="M708 1276l80 -50q-71 -126 -159 -126q-46 0 -126 36q-78 34 -109 34q-42 0 -79 -66l-80 51q73 124 163 124q41 0 124 -34q87 -36 110 -36q39 0 76 67z" />
    <glyph glyph-name="hungarumlaut" unicode="&#x2dd;" horiz-adv-x="1024" 
d="M524 1349l76 -84l-255 -196l-52 64zM792 1349l76 -84l-255 -196l-52 64z" />
    <glyph glyph-name="cedilla" unicode="&#xb8;" horiz-adv-x="1024" 
d="M524 -100l97 -54l-139 -195l-79 42z" />
    <glyph glyph-name="ogonek" unicode="&#x2db;" horiz-adv-x="1024" 
d="M671 0h104q-157 -90 -157 -170q0 -93 125 -93q38 0 76 18v-90q-51 -17 -93 -17q-193 0 -193 159q0 114 138 193z" />
    <glyph glyph-name="macron" unicode="&#x2c9;" horiz-adv-x="1023" 
d="M261 1246h502v-116h-502v116z" />
    <glyph glyph-name="copyright" unicode="&#xa9;" horiz-adv-x="1527" 
d="M987 569h103l-1 -36q0 -160 -56.5 -200.5t-280.5 -40.5q-204 0 -259.5 70t-55.5 328q0 277 57 336.5t322 59.5q263 0 263 -227l1 -28h-103v30q0 88 -29.5 112t-137.5 24q-190 0 -230.5 -29t-40.5 -164q0 -317 27 -370t190 -53q157 0 194.5 22t37.5 114zM765 1379
q286 0 489.5 -204t203.5 -492t-203.5 -492.5t-489.5 -204.5q-289 0 -493 204t-204 493q0 288 204 492t493 204zM764 1307q-253 0 -432 -182.5t-179 -441.5t179 -442t432 -183q252 0 430.5 183t178.5 442t-178 441.5t-431 182.5z" />
    <glyph glyph-name="registered" unicode="&#xae;" horiz-adv-x="1527" 
d="M452 300v779h384q238 0 238 -228q0 -166 -107 -202q96 -33 96 -150v-199h-102v179q0 125 -114 125h-29h-264v-304h-102zM554 696h252q166 0 166 134q0 99 -25 128t-110 29h-283v-291zM765 1379q286 0 489.5 -204t203.5 -492t-203.5 -492.5t-489.5 -204.5q-289 0 -493 204
t-204 493q0 288 204 492t493 204zM764 1307q-253 0 -432 -182.5t-179 -441.5t179 -442t432 -183q252 0 430.5 183t178.5 442t-178 441.5t-431 182.5z" />
    <glyph glyph-name="bullet" unicode="&#x2022;" horiz-adv-x="568" 
d="M286 978q117 0 199.5 -83.5t82.5 -200.5t-83 -200.5t-199 -83.5q-118 0 -202 83.5t-84 200.5q0 118 83.5 201t202.5 83z" />
    <glyph glyph-name="lozenge" unicode="&#x25ca;" horiz-adv-x="1063" 
d="M532 1419l531 -736l-531 -736l-532 736zM532 1147l-337 -464l337 -463l337 463z" />
    <glyph glyph-name="Delta" unicode="&#x2206;" horiz-adv-x="1249" 
d="M0 0l548 1365h150l551 -1365h-1249zM201 130h845l-423 1064z" />
    <glyph glyph-name="notequal" unicode="&#x2260;" horiz-adv-x="888" 
d="M490 910l112 231l98 -38l-92 -193h280v-125h-338l-92 -193h430v-125h-488l-114 -237l-97 38l94 199h-283v125h341l92 193h-433v125h490z" />
    <glyph glyph-name="radical" unicode="&#x221a;" horiz-adv-x="1365" 
d="M1365 1697v-130h-404l-450 -1567h-171l-172 617h-168v130h282l79 -270q9 -30 30 -131l24 -119l7 -32h10q7 34 9 42l32 135l52 216l91 316l225 793h524z" />
    <glyph glyph-name="integral" unicode="&#x222b;" horiz-adv-x="618" 
d="M0 -490l32 124q51 -14 90 -14q75 0 96 42.5t21 196.5v1281q0 240 48 318t197 78q56 0 134 -23l-32 -124q-51 17 -89 17q-117 0 -117 -202l-1 -100v-1220q0 -241 -51.5 -317.5t-213.5 -76.5q-61 0 -114 20z" />
    <glyph glyph-name="approxequal" unicode="&#x2248;" horiz-adv-x="984" 
d="M84 712l-84 54q109 232 279 232q77 0 230 -75q141 -69 202 -69q102 0 187 148l86 -50q-115 -228 -286 -228q-76 0 -174 47l-118 56q-85 41 -139 41q-101 0 -183 -156zM84 376l-84 54q108 232 279 232q77 0 230 -75q141 -69 202 -69q101 0 187 148l86 -51
q-114 -227 -286 -227q-75 0 -174 47l-118 56q-85 41 -138 41q-103 0 -184 -156z" />
    <glyph glyph-name="less" unicode="&#x3c;" horiz-adv-x="887" 
d="M887 1163v-140l-737 -334l737 -335v-139l-887 413v122z" />
    <glyph glyph-name="greater" unicode="&#x3e;" horiz-adv-x="887" 
d="M0 215v140l737 334l-737 334v139l887 -413v-122z" />
    <glyph glyph-name="lessequal" unicode="&#x2264;" horiz-adv-x="887" 
d="M887 1239v-134l-737 -326l737 -325v-134l-887 396v123zM887 259v-130h-887v130h887z" />
    <glyph glyph-name="greaterequal" unicode="&#x2265;" horiz-adv-x="887" 
d="M0 320v134l737 326l-737 325v134l887 -401v-122zM0 129v130h887v-130h-887z" />
    <glyph glyph-name="logicalnot" unicode="&#xac;" horiz-adv-x="887" 
d="M747 0v416h-747v130h887v-546h-140z" />
    <glyph glyph-name="infinity" unicode="&#x221e;" horiz-adv-x="1290" 
d="M648 603q-153 -218 -338 -218q-310 0 -310 313q0 137 87 224.5t224 87.5q184 0 331 -218q148 218 340 218q308 0 308 -314q0 -312 -306 -312q-190 0 -336 219zM715 697q126 -197 257 -197q185 0 185 200q0 194 -187 194q-127 0 -255 -197zM574 696q-123 198 -256 198
q-185 0 -185 -199q0 -194 187 -194q127 0 254 195z" />
    <glyph glyph-name="product" unicode="&#x220f;" horiz-adv-x="1277" 
d="M0 1536h1277v-130h-163v-1788h163v-130h-471v130h168v1788h-672v-1788h169v-130h-471v130h162v1788h-162v130z" />
    <glyph glyph-name="summation" unicode="&#x2211;" horiz-adv-x="1182" 
d="M1163 1536v-464h-128l-12 334h-867l518 -851l-518 -937h886l7 334h133v-464h-1182v147l510 920l-510 839v142h1163z" />
    <glyph glyph-name="partialdiff" unicode="&#x2202;" horiz-adv-x="895" 
d="M113 1248l19 125q363 -51 563 -280.5t200 -594.5q0 -233 -123 -377t-323 -144q-184 0 -316.5 136t-132.5 326q0 186 123.5 319t297.5 133q189 0 312 -156q-9 22 -13 33q-167 418 -607 480zM457 782q-130 0 -220 -102t-90 -249q0 -142 89 -243.5t213 -101.5
q128 0 213.5 103.5t85.5 258.5q0 145 -82.5 239.5t-208.5 94.5z" />
    <glyph glyph-name="asciicircum" unicode="^" horiz-adv-x="914" 
d="M152 752h-152l365 617h184l365 -617h-153l-306 506z" />
    <glyph glyph-name="bar" unicode="|" horiz-adv-x="140" 
d="M0 1365h140v-1706h-140v1706z" />
    <glyph glyph-name="underscore" unicode="_" horiz-adv-x="1024" 
d="M0 -136h1024v-130h-1024v130z" />
    <glyph glyph-name="pi" unicode="&#x3c0;" horiz-adv-x="1064" 
d="M152 0v851h-152v130h1064v-130h-150v-851h-140v851h-482v-851h-140z" />
    <glyph glyph-name="asciitilde" unicode="~" horiz-adv-x="984" 
d="M84 1196l-84 54q115 232 279 232q77 0 230 -74q141 -69 202 -69q102 0 187 147l86 -51q-114 -226 -286 -226q-75 0 -174 47l-118 55q-85 41 -139 41q-100 0 -183 -156z" />
    <glyph glyph-name="mu" unicode="&#xb5;" horiz-adv-x="825" 
d="M0 -342v1325h140v-559q0 -341 268 -341q277 0 277 360v540h140v-983h-140v180q-92 -206 -280 -206q-169 0 -265 152v-468h-140z" />
    <glyph glyph-name="Omega" unicode="&#x2126;" horiz-adv-x="1249" 
d="M0 0v130h375q-375 217 -375 615q0 275 181 464t444 189t443.5 -189t180.5 -464q0 -399 -375 -615h375v-130h-536v118q389 222 389 610q0 225 -139 382.5t-338 157.5q-202 0 -340 -156t-138 -385q0 -389 389 -609v-118h-536z" />
    <glyph glyph-name="Adieresis" unicode="&#xc4;" horiz-adv-x="1246" 
d="M969 289h-691l-105 -289h-163l500 1365h216l510 -1365h-161zM924 405l-303 834l-299 -834h602zM515 1660v-130h-154v130h154zM885 1660v-130h-154v130h154z" />
    <glyph glyph-name="Aacute" unicode="&#xc1;" horiz-adv-x="1246" 
d="M969 289h-691l-105 -289h-163l500 1365h216l510 -1365h-161zM924 405l-303 834l-299 -834h602zM823 1741l61 -111l-308 -154l-50 79z" />
    <glyph glyph-name="Agrave" unicode="&#xc0;" horiz-adv-x="1246" 
d="M969 289h-691l-105 -289h-163l500 1365h216l510 -1365h-161zM924 405l-303 834l-299 -834h602zM422 1741l298 -186l-50 -79l-308 154z" />
    <glyph glyph-name="Acircumflex" unicode="&#xc2;" horiz-adv-x="1246" 
d="M969 289h-691l-105 -289h-163l500 1365h216l510 -1365h-161zM924 405l-303 834l-299 -834h602zM627 1735l313 -182l-43 -77l-270 124l-283 -124l-38 77z" />
    <glyph glyph-name="Atilde" unicode="&#xc3;" horiz-adv-x="1246" 
d="M969 289h-691l-105 -289h-163l500 1365h216l510 -1365h-161zM924 405l-303 834l-299 -834h602zM867 1698l78 -51q-84 -136 -188 -136q-44 0 -138 41q-84 36 -123 36q-45 0 -86 -73l-82 46q74 136 173 136q41 0 136 -39q91 -38 123 -38q56 0 107 78z" />
    <glyph glyph-name="Aring" unicode="&#xc5;" horiz-adv-x="1246" 
d="M969 289h-691l-105 -289h-163l500 1365h216l510 -1365h-161zM924 405l-303 834l-299 -834h602zM623 1775q157 0 157 -157t-157 -157t-157 157t157 157zM623 1703q-89 0 -89 -85t89 -85t89 85t-89 85z" />
    <glyph glyph-name="Edieresis" unicode="&#xcb;" horiz-adv-x="1020" 
d="M229 1235v-465h693v-130h-693v-510h723v-130h-877v1365h877v-130h-723zM416 1660v-130h-154v130h154zM786 1660v-130h-154v130h154z" />
    <glyph glyph-name="Eacute" unicode="&#xc9;" horiz-adv-x="1020" 
d="M229 1235v-465h693v-130h-693v-510h723v-130h-877v1365h877v-130h-723zM697 1741l60 -111l-308 -154l-50 79z" />
    <glyph glyph-name="Egrave" unicode="&#xc8;" horiz-adv-x="1020" 
d="M229 1235v-465h693v-130h-693v-510h723v-130h-877v1365h877v-130h-723zM364 1741l297 -186l-50 -79l-307 154z" />
    <glyph glyph-name="Ecircumflex" unicode="&#xca;" horiz-adv-x="1020" 
d="M229 1235v-465h693v-130h-693v-510h723v-130h-877v1365h877v-130h-723zM527 1735l314 -182l-43 -77l-271 124l-283 -124l-38 77z" />
    <glyph glyph-name="Idieresis" unicode="&#xcf;" horiz-adv-x="416" 
d="M284 1365v-1365h-154v1365h154zM175 1660v-130h-154v130h154zM395 1660v-130h-154v130h154z" />
    <glyph glyph-name="Iacute" unicode="&#xcd;" horiz-adv-x="416" 
d="M284 1365v-1365h-154v1365h154zM408 1741l61 -111l-308 -154l-50 79z" />
    <glyph glyph-name="Igrave" unicode="&#xcc;" horiz-adv-x="416" 
d="M282 1365v-1365h-154v1365h154zM7 1741l298 -186l-50 -79l-308 154z" />
    <glyph glyph-name="Icircumflex" unicode="&#xce;" horiz-adv-x="416" 
d="M284 1365v-1365h-154v1365h154zM212 1735l286 -182l-43 -77l-243 124l-256 -124l-38 77z" />
    <glyph glyph-name="Ntilde" unicode="&#xd1;" horiz-adv-x="1426" 
d="M1296 1365v-1365h-253l-572 929l-93 153l-46 76l-46 76h-4l1 -51l1 -52v-102v-1029h-154v1365h252l499 -814l130 -214l65 -106l64 -107h4l-1 51l-1 52v102v1036h154zM958 1698l78 -51q-84 -136 -189 -136q-44 0 -137 41q-84 36 -124 36q-45 0 -85 -73l-83 46
q74 136 174 136q40 0 135 -39q91 -38 124 -38q55 0 107 78z" />
    <glyph glyph-name="Odieresis" unicode="&#xd6;" 
d="M629 1379q387 0 484 -113t97 -565q0 -487 -93 -601t-488 -114q-393 0 -487.5 113t-94.5 584v96l2 129q0 272 122.5 371.5t457.5 99.5zM628 1249q-324 0 -379 -72t-55 -494q0 -423 55 -495t379 -72q325 0 380 72t55 495v89l-1 129q0 226 -76 287t-358 61zM521 1660v-130
h-154v130h154zM891 1660v-130h-154v130h154z" />
    <glyph glyph-name="Oacute" unicode="&#xd3;" 
d="M629 1379q387 0 484 -113t97 -565q0 -487 -93 -601t-488 -114q-393 0 -487.5 113t-94.5 584v96l2 129q0 272 122.5 371.5t457.5 99.5zM628 1249q-324 0 -379 -72t-55 -494q0 -423 55 -495t379 -72q325 0 380 72t55 495v89l-1 129q0 226 -76 287t-358 61zM802 1741
l60 -111l-308 -154l-49 79z" />
    <glyph glyph-name="Ograve" unicode="&#xd2;" 
d="M629 1379q387 0 484 -113t97 -565q0 -487 -93 -601t-488 -114q-393 0 -487.5 113t-94.5 584v96l2 129q0 272 122.5 371.5t457.5 99.5zM628 1249q-324 0 -379 -72t-55 -494q0 -423 55 -495t379 -72q325 0 380 72t55 495v89l-1 129q0 226 -76 287t-358 61zM469 1741
l298 -186l-50 -79l-308 154z" />
    <glyph glyph-name="Ocircumflex" unicode="&#xd4;" 
d="M629 1379q387 0 484 -113t97 -565q0 -487 -93 -601t-488 -114q-393 0 -487.5 113t-94.5 584v96l2 129q0 272 122.5 371.5t457.5 99.5zM628 1249q-324 0 -379 -72t-55 -494q0 -423 55 -495t379 -72q325 0 380 72t55 495v89l-1 129q0 226 -76 287t-358 61zM632 1735
l314 -182l-43 -77l-271 124l-282 -124l-38 77z" />
    <glyph glyph-name="Otilde" unicode="&#xd5;" 
d="M629 1379q387 0 484 -113t97 -565q0 -487 -93 -601t-488 -114q-393 0 -487.5 113t-94.5 584v96l2 129q0 272 122.5 371.5t457.5 99.5zM628 1249q-324 0 -379 -72t-55 -494q0 -423 55 -495t379 -72q325 0 380 72t55 495v89l-1 129q0 226 -76 287t-358 61zM881 1698l78 -51
q-84 -136 -188 -136q-44 0 -138 41q-84 36 -124 36q-44 0 -85 -73l-83 46q75 136 174 136q41 0 135 -39q92 -38 124 -38q56 0 107 78z" />
    <glyph glyph-name="Udieresis" unicode="&#xdc;" horiz-adv-x="1341" 
d="M1058 1365h154v-956q0 -260 -104.5 -341.5t-438.5 -81.5q-313 0 -425.5 78.5t-112.5 298.5v46v956h154v-956q0 -194 63 -243.5t310 -49.5q268 0 334 48.5t66 244.5v956zM563 1660v-130h-154v130h154zM933 1660v-130h-154v130h154z" />
    <glyph glyph-name="Uacute" unicode="&#xda;" horiz-adv-x="1341" 
d="M1058 1365h154v-956q0 -260 -104.5 -341.5t-438.5 -81.5q-313 0 -425.5 78.5t-112.5 298.5v46v956h154v-956q0 -194 63 -243.5t310 -49.5q268 0 334 48.5t66 244.5v956zM844 1741l60 -111l-307 -154l-50 79z" />
    <glyph glyph-name="Ugrave" unicode="&#xd9;" horiz-adv-x="1341" 
d="M1058 1365h154v-956q0 -260 -104.5 -341.5t-438.5 -81.5q-313 0 -425.5 78.5t-112.5 298.5v46v956h154v-956q0 -194 63 -243.5t310 -49.5q268 0 334 48.5t66 244.5v956zM511 1741l298 -186l-50 -79l-308 154z" />
    <glyph glyph-name="Ucircumflex" unicode="&#xdb;" horiz-adv-x="1341" 
d="M1058 1365h154v-956q0 -260 -104.5 -341.5t-438.5 -81.5q-313 0 -425.5 78.5t-112.5 298.5v46v956h154v-956q0 -194 63 -243.5t310 -49.5q268 0 334 48.5t66 244.5v956zM675 1735l313 -182l-43 -77l-270 124l-283 -124l-38 77z" />
    <glyph glyph-name="Ydieresis" unicode="&#x178;" horiz-adv-x="1152" 
d="M1163 1365l-516 -795v-570h-154v570l-503 795h179l293 -461l56 -89q11 -16 28 -44l27 -45h4l27 45l27 44l57 89l292 461h183zM468 1660v-130h-154v130h154zM838 1660v-130h-154v130h154z" />
    <glyph glyph-name="adieresis" unicode="&#xe4;" horiz-adv-x="1044" 
d="M269 688h-139q0 167 75.5 224.5t295.5 57.5q239 0 323 -70.5t84 -268.5v-631h-140l11 103l-3 1q-80 -118 -325 -118q-362 0 -362 291q0 173 81 239t293 66q252 0 302 -99l3 1v116q0 164 -45 212.5t-197 48.5q-258 0 -258 -145q0 -7 1 -28zM494 473q-161 0 -209.5 -34
t-48.5 -146q0 -116 48 -153.5t195 -37.5q296 0 296 180q0 113 -57.5 152t-223.5 39zM401 1256v-130h-154v130h154zM771 1256v-130h-154v130h154z" />
    <glyph glyph-name="aacute" unicode="&#xe1;" horiz-adv-x="1044" 
d="M269 688h-139q0 167 75.5 224.5t295.5 57.5q239 0 323 -70.5t84 -268.5v-631h-140l11 103l-3 1q-80 -118 -325 -118q-362 0 -362 291q0 173 81 239t293 66q252 0 302 -99l3 1v116q0 164 -45 212.5t-197 48.5q-258 0 -258 -145q0 -7 1 -28zM494 473q-161 0 -209.5 -34
t-48.5 -146q0 -116 48 -153.5t195 -37.5q296 0 296 180q0 113 -57.5 152t-223.5 39zM677 1351l72 -98l-295 -181l-48 74z" />
    <glyph glyph-name="agrave" unicode="&#xe0;" horiz-adv-x="1044" 
d="M269 688h-139q0 167 75.5 224.5t295.5 57.5q239 0 323 -70.5t84 -268.5v-631h-140l11 103l-3 1q-80 -118 -325 -118q-362 0 -362 291q0 173 81 239t293 66q252 0 302 -99l3 1v116q0 164 -45 212.5t-197 48.5q-258 0 -258 -145q0 -7 1 -28zM494 473q-161 0 -209.5 -34
t-48.5 -146q0 -116 48 -153.5t195 -37.5q296 0 296 180q0 113 -57.5 152t-223.5 39zM369 1351l271 -205l-49 -74l-294 181z" />
    <glyph glyph-name="acircumflex" unicode="&#xe2;" horiz-adv-x="1044" 
d="M269 688h-139q0 167 75.5 224.5t295.5 57.5q239 0 323 -70.5t84 -268.5v-631h-140l11 103l-3 1q-80 -118 -325 -118q-362 0 -362 291q0 173 81 239t293 66q252 0 302 -99l3 1v116q0 164 -45 212.5t-197 48.5q-258 0 -258 -145q0 -7 1 -28zM494 473q-161 0 -209.5 -34
t-48.5 -146q0 -116 48 -153.5t195 -37.5q296 0 296 180q0 113 -57.5 152t-223.5 39zM509 1353l262 -209l-56 -71l-206 152l-206 -152l-57 71z" />
    <glyph glyph-name="atilde" unicode="&#xe3;" horiz-adv-x="1044" 
d="M719 1276l80 -50q-71 -126 -159 -126q-46 0 -126 36q-78 34 -109 34q-42 0 -79 -66l-80 51q73 124 163 124q41 0 124 -34q87 -36 110 -36q39 0 76 67zM269 688h-139q0 167 75.5 224.5t295.5 57.5q239 0 323 -70.5t84 -268.5v-631h-140l11 103l-3 1q-80 -118 -325 -118
q-362 0 -362 291q0 173 81 239t293 66q252 0 302 -99l3 1v116q0 164 -45 212.5t-197 48.5q-258 0 -258 -145q0 -7 1 -28zM494 466q-161 0 -209.5 -33.5t-48.5 -143.5q0 -115 48.5 -151t206.5 -36q284 0 284 176q0 111 -57.5 149.5t-223.5 38.5z" />
    <glyph glyph-name="aring" unicode="&#xe5;" horiz-adv-x="1044" 
d="M269 688h-139q0 167 75.5 224.5t295.5 57.5q239 0 323 -70.5t84 -268.5v-631h-140l11 103l-3 1q-80 -118 -325 -118q-362 0 -362 291q0 173 81 239t293 66q252 0 302 -99l3 1v116q0 164 -45 212.5t-197 48.5q-258 0 -258 -145q0 -7 1 -28zM494 473q-161 0 -209.5 -34
t-48.5 -146q0 -116 48 -153.5t195 -37.5q296 0 296 180q0 113 -57.5 152t-223.5 39zM509 1365q157 0 157 -157t-157 -157t-157 157t157 157zM509 1293q-89 0 -89 -85t89 -85t89 85t-89 85z" />
    <glyph glyph-name="edieresis" unicode="&#xeb;" horiz-adv-x="1029" 
d="M788 289h143l1 -35q0 -149 -90.5 -208.5t-317.5 -59.5q-264 0 -346.5 96.5t-82.5 405.5q0 286 83 384t325 98q264 0 346 -85t82 -358v-75h-688q0 -226 48.5 -288t226.5 -62q169 0 219.5 29.5t50.5 127.5v30zM788 561l-1 45q0 155 -51 201.5t-220 46.5
q-170 0 -220.5 -54.5t-50.5 -238.5h543zM420 1256v-130h-154v130h154zM790 1256v-130h-154v130h154z" />
    <glyph glyph-name="eacute" unicode="&#xe9;" horiz-adv-x="1029" 
d="M788 289h143l1 -35q0 -149 -90.5 -208.5t-317.5 -59.5q-264 0 -346.5 96.5t-82.5 405.5q0 286 83 384t325 98q264 0 346 -85t82 -358v-75h-688q0 -226 48.5 -288t226.5 -62q169 0 219.5 29.5t50.5 127.5v30zM788 561l-1 45q0 155 -51 201.5t-220 46.5
q-170 0 -220.5 -54.5t-50.5 -238.5h543zM682 1351l72 -98l-295 -181l-48 74z" />
    <glyph glyph-name="egrave" unicode="&#xe8;" horiz-adv-x="1029" 
d="M788 289h143l1 -35q0 -149 -90.5 -208.5t-317.5 -59.5q-264 0 -346.5 96.5t-82.5 405.5q0 286 83 384t325 98q264 0 346 -85t82 -358v-75h-688q0 -226 48.5 -288t226.5 -62q169 0 219.5 29.5t50.5 127.5v30zM788 561l-1 45q0 155 -51 201.5t-220 46.5
q-170 0 -220.5 -54.5t-50.5 -238.5h543zM374 1351l271 -205l-49 -74l-294 181z" />
    <glyph glyph-name="ecircumflex" unicode="&#xea;" horiz-adv-x="1029" 
d="M788 289h143l1 -35q0 -149 -90.5 -208.5t-317.5 -59.5q-264 0 -346.5 96.5t-82.5 405.5q0 286 83 384t325 98q264 0 346 -85t82 -358v-75h-688q0 -226 48.5 -288t226.5 -62q169 0 219.5 29.5t50.5 127.5v30zM788 561l-1 45q0 155 -51 201.5t-220 46.5
q-170 0 -220.5 -54.5t-50.5 -238.5h543zM528 1353l262 -209l-56 -71l-206 152l-206 -152l-57 71z" />
    <glyph glyph-name="idieresis" unicode="&#xef;" horiz-adv-x="385" 
d="M263 956v-956h-140v956h140zM138 1256v-130h-154v130h154zM402 1256v-130h-154v130h154z" />
    <glyph glyph-name="iacute" unicode="&#xed;" horiz-adv-x="385" 
d="M263 956v-956h-140v956h140zM360 1351l72 -98l-295 -181l-48 74z" />
    <glyph glyph-name="igrave" unicode="&#xec;" horiz-adv-x="385" 
d="M263 956v-956h-140v956h140zM25 1351l271 -205l-49 -74l-294 181z" />
    <glyph glyph-name="icircumflex" unicode="&#xee;" horiz-adv-x="385" 
d="M263 956v-956h-140v956h140zM192 1353l236 -209l-57 -71l-179 152l-178 -152l-57 71z" />
    <glyph glyph-name="ntilde" unicode="&#xf1;" horiz-adv-x="1056" 
d="M123 956h135l-4 -130l4 -3q64 147 318 147q205 0 277.5 -72t72.5 -276v-622h-140v610v36q0 123 -47 165.5t-181 42.5q-295 0 -295 -279v-575h-140v956zM737 1276l80 -50q-71 -126 -159 -126q-46 0 -126 36q-78 34 -109 34q-42 0 -79 -66l-80 51q73 124 163 124
q41 0 124 -34q87 -36 110 -36q39 0 76 67z" />
    <glyph glyph-name="odieresis" unicode="&#xf6;" horiz-adv-x="1036" 
d="M518 970q265 0 344 -92t79 -400t-79 -400t-344 -92q-264 0 -343 92t-79 400t79 400t343 92zM518 854q-186 0 -230.5 -60.5t-44.5 -315.5t44.5 -315.5t230.5 -60.5q187 0 231.5 60.5t44.5 315.5t-44.5 315.5t-231.5 60.5zM411 1256v-130h-154v130h154zM781 1256v-130h-154
v130h154z" />
    <glyph glyph-name="oacute" unicode="&#xf3;" horiz-adv-x="1036" 
d="M518 970q265 0 344 -92t79 -400t-79 -400t-344 -92q-264 0 -343 92t-79 400t79 400t343 92zM518 854q-186 0 -230.5 -60.5t-44.5 -315.5t44.5 -315.5t230.5 -60.5q187 0 231.5 60.5t44.5 315.5t-44.5 315.5t-231.5 60.5zM672 1351l72 -98l-295 -181l-48 74z" />
    <glyph glyph-name="ograve" unicode="&#xf2;" horiz-adv-x="1036" 
d="M518 970q265 0 344 -92t79 -400t-79 -400t-344 -92q-264 0 -343 92t-79 400t79 400t343 92zM518 854q-186 0 -230.5 -60.5t-44.5 -315.5t44.5 -315.5t230.5 -60.5q187 0 231.5 60.5t44.5 315.5t-44.5 315.5t-231.5 60.5zM378 1351l271 -205l-49 -74l-294 181z" />
    <glyph glyph-name="ocircumflex" unicode="&#xf4;" horiz-adv-x="1036" 
d="M518 970q265 0 344 -92t79 -400t-79 -400t-344 -92q-264 0 -343 92t-79 400t79 400t343 92zM518 854q-186 0 -230.5 -60.5t-44.5 -315.5t44.5 -315.5t230.5 -60.5q187 0 231.5 60.5t44.5 315.5t-44.5 315.5t-231.5 60.5zM518 1353l262 -209l-56 -71l-206 152l-206 -152
l-57 71z" />
    <glyph glyph-name="otilde" unicode="&#xf5;" horiz-adv-x="1036" 
d="M518 970q265 0 344 -92t79 -400t-79 -400t-344 -92q-264 0 -343 92t-79 400t79 400t343 92zM518 854q-186 0 -230.5 -60.5t-44.5 -315.5t44.5 -315.5t230.5 -60.5q187 0 231.5 60.5t44.5 315.5t-44.5 315.5t-231.5 60.5zM735 1276l80 -50q-71 -126 -159 -126
q-46 0 -126 36q-78 34 -109 34q-42 0 -79 -66l-80 51q73 124 163 124q41 0 124 -34q87 -36 110 -36q39 0 76 67z" />
    <glyph glyph-name="udieresis" unicode="&#xfc;" horiz-adv-x="1039" 
d="M903 956v-956h-140l10 125l-3 3q-73 -142 -312 -142q-335 0 -335 334v636h140v-636q0 -130 43 -174t169 -44q165 0 226.5 65.5t61.5 240.5v548h140zM412 1256v-130h-154v130h154zM782 1256v-130h-154v130h154z" />
    <glyph glyph-name="uacute" unicode="&#xfa;" horiz-adv-x="1039" 
d="M903 956v-956h-140l10 125l-3 3q-73 -142 -312 -142q-335 0 -335 334v636h140v-636q0 -130 43 -174t169 -44q165 0 226.5 65.5t61.5 240.5v548h140zM674 1351l72 -98l-295 -181l-48 74z" />
    <glyph glyph-name="ugrave" unicode="&#xf9;" horiz-adv-x="1039" 
d="M903 956v-956h-140l10 125l-3 3q-73 -142 -312 -142q-335 0 -335 334v636h140v-636q0 -130 43 -174t169 -44q165 0 226.5 65.5t61.5 240.5v548h140zM366 1351l271 -205l-49 -74l-294 181z" />
    <glyph glyph-name="ucircumflex" unicode="&#xfb;" horiz-adv-x="1039" 
d="M903 956v-956h-140l10 125l-3 3q-73 -142 -312 -142q-335 0 -335 334v636h140v-636q0 -130 43 -174t169 -44q165 0 226.5 65.5t61.5 240.5v548h140zM520 1353l262 -209l-56 -71l-206 152l-206 -152l-57 71z" />
    <glyph glyph-name="ydieresis" unicode="&#xff;" horiz-adv-x="796" 
d="M802 956l-271 -1011q-57 -214 -126.5 -294t-198.5 -80q-26 0 -67 7v116q29 -6 49 -7q113 -6 168 183l27 94q1 5 9 36h-53l-346 956h149l147 -426l74 -212l36 -107l37 -106h4l26 106l25 107l54 212l108 426h149zM290 1256v-130h-154v130h154zM660 1256v-130h-154v130h154z
" />
    <glyph glyph-name="Eth" unicode="&#xd0;" horiz-adv-x="1337" 
d="M130 640h-130v116h130v609h630q294 0 398 -129t104 -494q0 -444 -93 -593t-370 -149h-669v640zM284 640v-510h443q246 0 317 98t71 437q0 372 -62 471t-294 99h-475v-479h434v-116h-434z" />
    <glyph glyph-name="Thorn" unicode="&#xde;" horiz-adv-x="1208" 
d="M130 0v1365h154v-191h419h52q231 0 315 -89t84 -334q0 -236 -87.5 -321t-328.5 -85l-60 -1h-394v-344h-154zM284 474h365q230 0 294 47.5t64 216.5q0 199 -43.5 252t-206.5 53l-59 1h-414v-570z" />
    <glyph glyph-name="eth" unicode="&#xf0;" horiz-adv-x="1036" 
d="M531 1147l-195 -108l-46 83l187 104l-96 139h139l57 -83l179 98l46 -83l-170 -94l211 -307q98 -143 98 -418q0 -308 -79 -400t-344 -92q-264 0 -343 92t-79 400t79 400t344 92q68 0 137 -6zM518 854q-186 0 -230.5 -60.5t-44.5 -315.5t44.5 -315.5t230.5 -60.5
q187 0 231.5 60.5t44.5 315.5t-44.5 315.5t-231.5 60.5z" />
    <glyph glyph-name="thorn" unicode="&#xfe;" horiz-adv-x="1045" 
d="M123 1365h140v-530l4 -3q72 138 307 138q213 0 293 -108.5t80 -397.5q0 -269 -81 -373.5t-288 -104.5q-236 0 -312 127h-3v-524h-140v1776zM535 854q-168 0 -219 -72.5t-51 -311.5q0 -221 55 -294.5t221 -73.5q158 0 208.5 71t50.5 293q0 244 -49 316t-216 72z" />
    <glyph glyph-name="onesuperior" unicode="&#xb9;" horiz-adv-x="817" 
d="M526 1365v-819h-102v727l-213 -220l-71 63l245 249h141z" />
    <glyph glyph-name="twosuperior" unicode="&#xb2;" horiz-adv-x="826" 
d="M713 636v-92h-633v160q0 131 55 172.5t258 62.5q159 17 190 43.5t31 142.5q0 102 -36 130.5t-167 28.5q-146 0 -184.5 -24t-38.5 -115l1 -68h-108l1 49q0 146 66 196.5t257 50.5q186 0 248.5 -52.5t62.5 -208.5q0 -147 -57.5 -197.5t-247.5 -68.5q-161 -15 -191 -40.5
t-30 -149.5v-20h523z" />
    <glyph glyph-name="threesuperior" unicode="&#xb3;" horiz-adv-x="826" 
d="M325 918v93l40 -1q174 0 211 19t37 108q0 103 -32 125t-183 22q-142 0 -172 -22t-30 -124v-34h-105v39q0 141 59.5 185.5t246.5 44.5q193 0 255.5 -41.5t62.5 -169.5q0 -171 -117 -196q134 -23 134 -188q0 -144 -64 -192t-255 -48q-206 0 -271 44.5t-65 185.5l-1 54h108
v-54q0 -139 125 -139l140 -2l93 7q88 14 88 149t-179 135h-82h-44z" />
    <glyph glyph-name="multiply" unicode="&#xd7;" 
d="M533 683l-339 338l95 96l339 -339l339 339l95 -96l-339 -338l339 -339l-95 -95l-339 338l-339 -338l-95 95z" />
    <glyph glyph-name="onehalf" unicode="&#xbd;" horiz-adv-x="1925" 
d="M526 1365v-819h-102v727l-213 -220l-71 63l245 249h141zM1477 1365l-926 -1365h-104l922 1365h108zM1812 92v-92h-633v160q0 131 54.5 171.5t258.5 62.5q159 17 190 43t31 142q0 102 -36 130.5t-167 28.5q-146 0 -184.5 -24t-38.5 -115l1 -68h-108l1 49q0 146 66 196.5
t257 50.5q186 0 248.5 -52.5t62.5 -208.5q0 -147 -58 -197.5t-247 -67.5q-162 -15 -191.5 -40.5t-29.5 -148.5v-20h523z" />
    <glyph glyph-name="onequarter" unicode="&#xbc;" horiz-adv-x="1924" 
d="M526 1365v-819h-102v727l-213 -220l-71 63l245 249h141zM1477 1365l-926 -1365h-104l922 1365h108zM1735 819v-541h129v-92h-129v-186h-102v186h-490v118l440 515h152zM1633 278v460l-387 -460h387z" />
    <glyph glyph-name="threequarters" unicode="&#xbe;" horiz-adv-x="1924" 
d="M325 918v93l40 -1q174 0 211 19t37 108q0 103 -32 125t-183 22q-142 0 -172 -22t-30 -124v-34h-105v39q0 141 59.5 185.5t246.5 44.5q193 0 255.5 -41.5t62.5 -169.5q0 -173 -117 -196q134 -22 134 -188q0 -144 -64 -192t-255 -48q-206 0 -271 44.5t-65 185.5l-1 54h108
v-54q0 -139 125 -139l140 -2l93 7q88 14 88 149t-179 135h-82h-44zM1545 1365l-927 -1365h-103l921 1365h109zM1734 819v-541h129v-92h-129v-186h-102v186h-490v118l440 515h152zM1632 278v460l-387 -460h387z" />
    <glyph glyph-name="brokenbar" unicode="&#xa6;" horiz-adv-x="140" 
d="M0 1365h140v-679h-140v679zM0 314h140v-655h-140v655z" />
    <glyph glyph-name="glyph237" horiz-adv-x="1246" 
d="M515 1660v-130h-154v130h154zM885 1660v-130h-154v130h154z" />
    <glyph glyph-name="glyph238" horiz-adv-x="1246" 
d="M823 1741l61 -111l-308 -154l-50 79z" />
    <glyph glyph-name="glyph239" horiz-adv-x="1246" 
d="M422 1741l298 -186l-50 -79l-308 154z" />
    <glyph glyph-name="glyph240" horiz-adv-x="1246" 
d="M627 1735l313 -182l-43 -77l-270 124l-283 -124l-38 77z" />
    <glyph glyph-name="glyph241" horiz-adv-x="1246" 
d="M867 1698l78 -51q-84 -136 -188 -136q-44 0 -138 41q-84 36 -123 36q-45 0 -86 -73l-82 46q74 136 173 136q41 0 136 -39q91 -38 123 -38q56 0 107 78z" />
    <glyph glyph-name="glyph242" horiz-adv-x="1246" 
d="M623 1775q157 0 157 -157t-157 -157t-157 157t157 157zM623 1703q-89 0 -89 -85t89 -85t89 85t-89 85z" />
    <glyph glyph-name="glyph243" horiz-adv-x="1020" 
d="M416 1660v-130h-154v130h154zM786 1660v-130h-154v130h154z" />
    <glyph glyph-name="glyph244" horiz-adv-x="1020" 
d="M697 1741l60 -111l-308 -154l-50 79z" />
    <glyph glyph-name="glyph245" horiz-adv-x="1020" 
d="M364 1741l297 -186l-50 -79l-307 154z" />
    <glyph glyph-name="glyph246" horiz-adv-x="1020" 
d="M527 1735l314 -182l-43 -77l-271 124l-283 -124l-38 77z" />
    <glyph glyph-name="glyph247" horiz-adv-x="416" 
d="M175 1660v-130h-154v130h154zM395 1660v-130h-154v130h154z" />
    <glyph glyph-name="glyph248" horiz-adv-x="416" 
d="M408 1741l61 -111l-308 -154l-50 79z" />
    <glyph glyph-name="glyph249" horiz-adv-x="416" 
d="M7 1741l298 -186l-50 -79l-308 154z" />
    <glyph glyph-name="glyph250" horiz-adv-x="416" 
d="M212 1735l286 -182l-43 -77l-243 124l-256 -124l-38 77z" />
    <glyph glyph-name="glyph251" horiz-adv-x="1426" 
d="M958 1698l78 -51q-84 -136 -189 -136q-44 0 -137 41q-84 36 -124 36q-45 0 -85 -73l-83 46q74 136 174 136q40 0 135 -39q91 -38 124 -38q55 0 107 78z" />
    <glyph glyph-name="glyph252" 
d="M520 1660v-130h-154v130h154zM890 1660v-130h-154v130h154z" />
    <glyph glyph-name="glyph253" 
d="M801 1741l60 -111l-308 -154l-49 79z" />
    <glyph glyph-name="glyph254" 
d="M468 1741l298 -186l-50 -79l-308 154z" />
    <glyph glyph-name="glyph255" 
d="M631 1735l314 -182l-43 -77l-271 124l-282 -124l-38 77z" />
    <glyph glyph-name="glyph256" 
d="M880 1698l78 -51q-84 -136 -188 -136q-44 0 -138 41q-84 36 -124 36q-44 0 -85 -73l-83 46q75 136 174 136q41 0 135 -39q92 -38 124 -38q56 0 107 78z" />
    <glyph glyph-name="glyph257" horiz-adv-x="1146" 
d="M577 1476l-321 182l38 77l283 -124l271 124l43 -77z" />
    <glyph glyph-name="Scaron" unicode="&#x160;" horiz-adv-x="1146" 
d="M1066 995h-153q0 165 -55 209.5t-259 44.5q-242 0 -312 -42.5t-70 -189.5q0 -165 55 -201t327 -49q319 -14 405.5 -81t86.5 -300q0 -252 -99.5 -326t-439.5 -74q-295 0 -392.5 74.5t-97.5 300.5l-1 61h153v-34q0 -183 56 -227.5t287 -44.5q265 0 326 44.5t61 237.5
q0 125 -41.5 166.5t-173.5 49.5l-160 8l-152 8q-347 24 -347 360q0 233 101 311t403 78q306 0 399 -72.5t93 -311.5zM577 1476l-321 182l38 77l283 -124l271 124l43 -77z" />
    <glyph glyph-name="glyph259" horiz-adv-x="1342" 
d="M563 1660v-130h-154v130h154zM933 1660v-130h-154v130h154z" />
    <glyph glyph-name="glyph260" horiz-adv-x="1342" 
d="M844 1741l60 -111l-307 -154l-50 79z" />
    <glyph glyph-name="glyph261" horiz-adv-x="1342" 
d="M511 1741l298 -186l-50 -79l-308 154z" />
    <glyph glyph-name="glyph262" horiz-adv-x="1342" 
d="M675 1735l313 -182l-43 -77l-270 124l-283 -124l-38 77z" />
    <glyph glyph-name="glyph263" horiz-adv-x="1151" 
d="M776 1741l61 -111l-308 -154l-50 79z" />
    <glyph glyph-name="Yacute" unicode="&#xdd;" horiz-adv-x="1152" 
d="M1163 1365l-516 -795v-570h-154v570l-503 795h179l293 -461l56 -89q11 -16 28 -44l27 -45h4l27 45l27 44l57 89l292 461h183zM776 1741l61 -111l-308 -154l-50 79z" />
    <glyph glyph-name="glyph265" horiz-adv-x="1151" 
d="M468 1660v-130h-154v130h154zM838 1660v-130h-154v130h154z" />
    <glyph glyph-name="glyph266" horiz-adv-x="1043" 
d="M268 688h-139q0 167 75.5 224.5t295.5 57.5q239 0 323 -70.5t84 -268.5v-631h-140l11 103l-3 1q-80 -118 -325 -118q-362 0 -362 291q0 173 81 239t293 66q252 0 302 -99l3 1v116q0 164 -45 212.5t-197 48.5q-258 0 -258 -145q0 -7 1 -28zM493 466q-161 0 -209.5 -33.5
t-48.5 -143.5q0 -115 48.5 -151t206.5 -36q284 0 284 176q0 111 -57.5 149.5t-223.5 38.5z" />
    <glyph glyph-name="glyph267" horiz-adv-x="385" 
d="M138 1256v-130h-154v130h154zM402 1256v-130h-154v130h154z" />
    <glyph glyph-name="scaron" unicode="&#x161;" horiz-adv-x="970" 
d="M864 706h-140q0 100 -40.5 124t-208.5 24q-156 0 -198 -25.5t-42 -122.5q0 -147 141 -154l113 -6l143 -7q260 -13 260 -272q0 -161 -86 -221t-315 -60q-235 0 -323.5 57t-88.5 209l1 52h145l1 -45q0 -94 48 -125.5t189 -31.5q173 0 227.5 33t54.5 138q0 151 -137 151
q-319 0 -419.5 54t-100.5 224q0 161 79.5 214.5t316.5 53.5q380 0 380 -229v-35zM485 1073l-263 209l57 71l206 -152l206 152l56 -71z" />
    <glyph glyph-name="yacute" unicode="&#xfd;" horiz-adv-x="796" 
d="M802 956l-271 -1011q-57 -214 -126.5 -294t-198.5 -80q-26 0 -67 7v116q29 -6 49 -7q113 -6 168 183l27 94q1 5 9 36h-53l-346 956h149l147 -426l74 -212l36 -107l37 -106h4l26 106l25 107l54 212l108 426h149zM579 1351l72 -98l-295 -181l-48 74z" />
  </font>
</defs></svg>
